Tools for Supervised Feature Selection • important
…
First, let’s capture the effect of the individual model terms. These terms are from the derived features in the models, such as dummy variables, spline terms, interaction columns, etc.

set.seed(382)
lm_deriv_imp <- 
  importance_perm(
    lm_fit,
    data = delivery_train,
    metrics = metric_set(mae, rsq),
    times = 50,
    type = "derived"
  )
lm_deriv_imp
#> # A tibble: 226 × 6
#>    .metric predictor             n  mean std_err importance
#>    <chr>   <chr>             <int> <dbl>   <dbl>      <dbl>
#>  1 rsq     distance_10          50 0.531 0.00642       82.7
#>  2 mae     distance_10          50 2.24  0.0308        72.8
#>  3 mae     day_Sat              50 1.09  0.0194        56.3
#>  4 mae     day_Fri              50 0.904 0.0171        53.0
#>  5 rsq     day_Sat              50 0.120 0.00274       43.8
#>  6 mae     distance_09          50 0.783 0.0191        41.0
#>  7 mae     day_Thu              50 0.633 0.0165        38.3
#>  8 rsq     day_Fri              50 0.101 0.00265       37.9
#>  9 rsq     hour_07_x_day_Sat    50 0.140 0.00380       36.8
#> 10 rsq     hour_06_x_day_Sat    50 0.143 0.00403       35.5
#> # ℹ 216 more rows
…
